{
  "cSpell.words": [
    "Ahmet",
    "Boto",
    "Krew",
    "Kubuntu",
    "Neovim",
    "Powerline",
    "arkade",
    "arouene",
    "checkhealth",
    "hanschen",
    "ipython",
    "jiangmiao",
    "jpalardy",
    "kubectl",
    "neoclide",
    "nmap",
    "nvim",
    "nvimdocker",
    "pyright",
    "sbom",
    "sheerun",
    "tpope",
    "untaransiblecollection",
    "userid",
    "vimrc"
  ]
}